{
	// Use IntelliSense to learn about possible attributes.
	// Hover to view descriptions of existing attributes.
	// For more information, visit: https://go.microsoft.com/fwlink/?linkid=830387
	"version": "0.2.0",
	"configurations": [
		{
			"name": "Client",
			"type": "go",
			"request": "launch",
			"mode": "debug",
			"program": "${workspaceFolder}/client/main.go"
		},
		{
            "name": "Server",
            "type": "go",
            "request": "attach",
            "preLaunchTask": "DELVE for Server",
            "mode": "remote",
            "remotePath": "${workspaceFolder}",
            "port": 23456,
            "host": "127.0.0.1",
            "cwd": "${workspaceFolder}"
        }
	]
}
